{
  "name": "SeasonEpisode",
  "base": "PersistedModel",
  "idInjection": true,
  "options": {
    "validateUpsert": true
  },
  "properties": {
    "deleted": {
      "type": "boolean",
      "default": "false"
    },
    "seasonId": {
      "type": "number",
      "required": true
    },
    "episodeId": {
      "type": "number",
      "required": true
    },
    "elementIndex": {
      "type": "number",
      "doc": "Counting actual elements, which number would this be in the sequence starting at 1? May be 0 to be considered removed from normal order.",
      "default": "0"
    },
    "elementNameSuffix": {
      "type": "string",
      "doc": "Given the name of the season, what would one add as suffix to construct an in-season name? E.g. LOST S2 Episode *4*, or LOST S2 Episode *5-6*",
      "length": 50
    }
  },
  "validations": [],
  "relations": {
    "episode": {
      "type": "belongsTo",
      "model": "Episode",
      "foreignKey": "episodeId"
    },
    "season": {
      "type": "belongsTo",
      "model": "Season",
      "foreignKey": "seasonId"
    }
  },
  "acls": [],
  "methods": {}
}
